{"path":"/ok44/view","eventJournalDto":{"competitionCh19St48":false,"featureFCSNF10947":false,"featureFCSNF11696":false,"headerBlock":{"capitalRepairsLink":"/epz/capitalrepairs/search/results.html?searchString=&capitalPurchaseNumber=0473100006418000001&openMode=USE_DEFAULT_PARAMS","changedDate":1526909657155,"complaintsDto":{"complaintId":null,"complaintNumber":null,"hasComplaint":false},"createdDate":1522251337921,"cryptoSignLink":"/epz/order/notice/printForm/listModal.html?regNumber=0473100006418000001","currencySymbol":"&#8381;","customerOrgType":true,"expirationDate":1524042000000,"hasPlanGraph":false,"hasPurchaseObjectElement":true,"initialContractPriceBlock":{"advancePercent":null,"contractCurrency":null,"contractPaymentPlan":null,"contractPriceFormula":null,"currency":null,"currencyCbRate":null,"currencyRate":null,"currencyRateDate":null,"discussionNeed":false,"financeSource":null,"ikz":null,"imposDefWorkSize":null,"initialContractPrice":null,"interBudgetaryTransfer":null,"nmckContractCurrency":null,"nmckContractCurrencyForeignCurrency":false,"nominalRate":null,"notNeedObozDescription":null,"publicDiscussionList":null,"restrictsVendorSelect":null,"specifyContractPriceFormula":null,"hasContractPaymentPlan":false,"currencyNotEquals":false},"isCentralized":false,"nmck":350000,"obozSearchLink":null,"orderBlockingDTO":null,"orderShared":false,"orderType":"OK44","organizationPublishLink":"https://zakupki.gov.ru/epz/organization/view/info.html?organizationCode=04731000064","organizationPublishName":"АКЦИОНЕРНОЕ ОБЩЕСТВО \"ПРОЕКТНО-ИЗЫСКАТЕЛЬСКИЙ И НАУЧНО-ИССЛЕДОВАТЕЛЬСКИЙ ИНСТИТУТ ПО ПРОЕКТИРОВАНИЮ ЭНЕРГЕТИЧЕСКИХ СИСТЕМ И ЭЛЕКТРИЧЕСКИХ СЕТЕЙ \"ЭНЕРГОСЕТЬПРОЕКТ\"","pdiscLink":null,"placingWayFZ":"44-ФЗ","placingWayName":"Открытый конкурс для заключения договора на проведение аудита бухгалтерской (финансовой) отчетности (согласно ч. 4 ст. 5 Федерального закона от 30.12.2008г. № 307-ФЗ)","printFormLink":"/epz/order/notice/printForm/view.html?regNumber=0473100006418000001","protocolName":null,"publishedDate":1522251337921,"publishedEtpDate":null,"purchaseNumber":"0473100006418000001","purchaseObjectName":"Оказание услуг по аудиту годовой бухгалтерской\r\n(финансовой) отчетности АО \"Институт \"ЭНЕРГОСЕТЬПРОЕКТ\" за 2017 год","stageNumber":0,"stageOfPurchase":"Определение поставщика завершено","subsystemType":null,"suspend":false,"targetEA":null,"timeZoneAbbrev":"Europe/Moscow","manyPublishNotification":false,"multiLots":false,"centralized":false},"orderHasFeatures449":false,"orderType":"OK44","structuredDocumentationBlockDto":{"clarProcedureDelivery":null,"clarProcedureEndDate":null,"clarProcedureStartDate":null,"contractNecessaryGoodsCh9St37":false,"modifiableContactCountGoods":false,"onesideRejectionCh9St37":false,"timeZoneAbbreviation":null},"tabsBlock":{"actualNotices":[{"changeLotNum":null,"docNum":"№0473100006418000001","docTypeCode":"I","orderType":"открытого конкурса","printFormLink":{"link":"/epz/order/notice/printForm/view.html?entityType=notice&entityId=15852000&source=","show":true,"title":null},"publishDate":1522251337921,"timeZoneAbbrev":"Europe/Moscow"}],"changedStProtocol":false,"commonLink":"/ok44/view/common-info.html?regNumber=0473100006418000001","decisionInfoLink":null,"docLink":"/ok44/view/documents.html?regNumber=0473100006418000001","docTypeCode":"I","eventLink":"/ok44/view/event-journal.html?regNumber=0473100006418000001","lotsLink":"/ok44/view/lots-list.html?regNumber=0473100006418000001","manyLots":false,"placingWay":"ok44","placingWayCode":"oka44","protocolBidListLink":null,"protocolBidReviewLink":null,"protocolCancelInfoLink":null,"protocolChangeLink":null,"protocolDocsLink":null,"protocolMainInfoLink":null,"protocolName":null,"protocolTradeInfoLink":null,"regNumber":"0473100006418000001","showSupplierResultsTab":true,"structuredProtocolTabs":null,"supplierResultsLink":"/ok44/view/supplier-results.html?regNumber=0473100006418000001","tabParams":null,"timeZoneAbbrev":"Europe/Moscow"},"events":[{"entitySid":14656745,"eventDate":1526909657161,"eventDescription":"Закупка №0473100006418000001 вручную переведена на этап «Определение поставщика (подрядчика, исполнителя) завершено»","localEventDate":null,"timeZoneAbbreviation":"Europe/Moscow"},{"entitySid":14656745,"eventDate":1526909572307,"eventDescription":"Закупка №0473100006418000001 возвращена на этап «Работа комиссии»","localEventDate":null,"timeZoneAbbreviation":"Europe/Moscow"},{"entitySid":14656745,"eventDate":1524486641527,"eventDescription":"Закупка №0473100006418000001 вручную переведена на этап «Определение поставщика (подрядчика, исполнителя) завершено»","localEventDate":null,"timeZoneAbbreviation":"Europe/Moscow"},{"entitySid":14656745,"eventDate":1524486560689,"eventDescription":"Закупка №0473100006418000001 возвращена на этап «Работа комиссии»","localEventDate":null,"timeZoneAbbreviation":"Europe/Moscow"},{"entitySid":14656745,"eventDate":1524486378122,"eventDescription":"Закупка №0473100006418000001 вручную переведена на этап «Определение поставщика (подрядчика, исполнителя) завершено»","localEventDate":null,"timeZoneAbbreviation":"Europe/Moscow"},{"entitySid":14656745,"eventDate":1524486298248,"eventDescription":"Размещен «Протокол рассмотрения и оценки заявок на участие в открытом конкурсе от 23.04.2018 №ПРО1» для закупки №0473100006418000001","localEventDate":null,"timeZoneAbbreviation":"Europe/Moscow"},{"entitySid":14656745,"eventDate":1524223645408,"eventDescription":"Размещены исправления к документу: «Протокол вскрытия конвертов с заявками на участие в открытом конкурсе и открытия доступа к поданным в форме электронных документов заявкам на участие в открытом конкурсе от 18.04.2018 №ПВК2» для закупки №0473100006418000001","localEventDate":null,"timeZoneAbbreviation":"Europe/Moscow"},{"entitySid":14656745,"eventDate":1524132379224,"eventDescription":"Размещен «Протокол вскрытия конвертов с заявками на участие в открытом конкурсе и открытия доступа к поданным в форме электронных документов заявкам на участие в открытом конкурсе от 18.04.2018 №ПВК1» для закупки №0473100006418000001","localEventDate":null,"timeZoneAbbreviation":"Europe/Moscow"},{"entitySid":14656745,"eventDate":1524062830672,"eventDescription":"Закупка №0473100006418000001 в части документа Извещение о проведении открытого конкурса от 28.03.2018 №0473100006418000001 вручную переведена на этап «Работа комиссии»","localEventDate":null,"timeZoneAbbreviation":"Europe/Moscow"},{"entitySid":14656745,"eventDate":1522251338775,"eventDescription":"Закупка №0473100006418000001 автоматически переведена на этап «Подача заявок»","localEventDate":null,"timeZoneAbbreviation":"Europe/Moscow"}],"pageSize":10,"timezone":"Europe/Moscow","total":11},"journalCriteria":{"entityId":null,"number":null,"page":0,"pageSize":0,"qualifier":null,"sid":14656745,"timezone":null,"types":null,"useLikeRestrictions":false,"public":false},"pagingDto":{"criteriaPageNumber":1,"pageCount":2,"recordsPerPage":"_10","rounded":false,"total":11,"totalRounded":0,"exceedCount":false,"rssLink":"","moreThanTen":true},"dto":{"competitionCh19St48":false,"featureFCSNF10947":false,"featureFCSNF11696":false,"headerBlock":{"capitalRepairsLink":"/epz/capitalrepairs/search/results.html?searchString=&capitalPurchaseNumber=0473100006418000001&openMode=USE_DEFAULT_PARAMS","changedDate":1526909657155,"complaintsDto":{"complaintId":null,"complaintNumber":null,"hasComplaint":false},"createdDate":1522251337921,"cryptoSignLink":"/epz/order/notice/printForm/listModal.html?regNumber=0473100006418000001","currencySymbol":"&#8381;","customerOrgType":true,"expirationDate":1524042000000,"hasPlanGraph":false,"hasPurchaseObjectElement":true,"initialContractPriceBlock":{"advancePercent":null,"contractCurrency":null,"contractPaymentPlan":null,"contractPriceFormula":null,"currency":null,"currencyCbRate":null,"currencyRate":null,"currencyRateDate":null,"discussionNeed":false,"financeSource":null,"ikz":null,"imposDefWorkSize":null,"initialContractPrice":null,"interBudgetaryTransfer":null,"nmckContractCurrency":null,"nmckContractCurrencyForeignCurrency":false,"nominalRate":null,"notNeedObozDescription":null,"publicDiscussionList":null,"restrictsVendorSelect":null,"specifyContractPriceFormula":null,"hasContractPaymentPlan":false,"currencyNotEquals":false},"isCentralized":false,"nmck":350000,"obozSearchLink":null,"orderBlockingDTO":null,"orderShared":false,"orderType":"OK44","organizationPublishLink":"https://zakupki.gov.ru/epz/organization/view/info.html?organizationCode=04731000064","organizationPublishName":"АКЦИОНЕРНОЕ ОБЩЕСТВО \"ПРОЕКТНО-ИЗЫСКАТЕЛЬСКИЙ И НАУЧНО-ИССЛЕДОВАТЕЛЬСКИЙ ИНСТИТУТ ПО ПРОЕКТИРОВАНИЮ ЭНЕРГЕТИЧЕСКИХ СИСТЕМ И ЭЛЕКТРИЧЕСКИХ СЕТЕЙ \"ЭНЕРГОСЕТЬПРОЕКТ\"","pdiscLink":null,"placingWayFZ":"44-ФЗ","placingWayName":"Открытый конкурс для заключения договора на проведение аудита бухгалтерской (финансовой) отчетности (согласно ч. 4 ст. 5 Федерального закона от 30.12.2008г. № 307-ФЗ)","printFormLink":"/epz/order/notice/printForm/view.html?regNumber=0473100006418000001","protocolName":null,"publishedDate":1522251337921,"publishedEtpDate":null,"purchaseNumber":"0473100006418000001","purchaseObjectName":"Оказание услуг по аудиту годовой бухгалтерской\r\n(финансовой) отчетности АО \"Институт \"ЭНЕРГОСЕТЬПРОЕКТ\" за 2017 год","stageNumber":0,"stageOfPurchase":"Определение поставщика завершено","subsystemType":null,"suspend":false,"targetEA":null,"timeZoneAbbrev":"Europe/Moscow","manyPublishNotification":false,"multiLots":false,"centralized":false},"orderHasFeatures449":false,"orderType":"OK44","structuredDocumentationBlockDto":{"clarProcedureDelivery":null,"clarProcedureEndDate":null,"clarProcedureStartDate":null,"contractNecessaryGoodsCh9St37":false,"modifiableContactCountGoods":false,"onesideRejectionCh9St37":false,"timeZoneAbbreviation":null},"tabsBlock":{"actualNotices":[{"changeLotNum":null,"docNum":"№0473100006418000001","docTypeCode":"I","orderType":"открытого конкурса","printFormLink":{"link":"/epz/order/notice/printForm/view.html?entityType=notice&entityId=15852000&source=","show":true,"title":null},"publishDate":1522251337921,"timeZoneAbbrev":"Europe/Moscow"}],"changedStProtocol":false,"commonLink":"/ok44/view/common-info.html?regNumber=0473100006418000001","decisionInfoLink":null,"docLink":"/ok44/view/documents.html?regNumber=0473100006418000001","docTypeCode":"I","eventLink":"/ok44/view/event-journal.html?regNumber=0473100006418000001","lotsLink":"/ok44/view/lots-list.html?regNumber=0473100006418000001","manyLots":false,"placingWay":"ok44","placingWayCode":"oka44","protocolBidListLink":null,"protocolBidReviewLink":null,"protocolCancelInfoLink":null,"protocolChangeLink":null,"protocolDocsLink":null,"protocolMainInfoLink":null,"protocolName":null,"protocolTradeInfoLink":null,"regNumber":"0473100006418000001","showSupplierResultsTab":true,"structuredProtocolTabs":null,"supplierResultsLink":"/ok44/view/supplier-results.html?regNumber=0473100006418000001","tabParams":null,"timeZoneAbbrev":"Europe/Moscow"},"events":[{"entitySid":14656745,"eventDate":1526909657161,"eventDescription":"Закупка №0473100006418000001 вручную переведена на этап «Определение поставщика (подрядчика, исполнителя) завершено»","localEventDate":null,"timeZoneAbbreviation":"Europe/Moscow"},{"entitySid":14656745,"eventDate":1526909572307,"eventDescription":"Закупка №0473100006418000001 возвращена на этап «Работа комиссии»","localEventDate":null,"timeZoneAbbreviation":"Europe/Moscow"},{"entitySid":14656745,"eventDate":1524486641527,"eventDescription":"Закупка №0473100006418000001 вручную переведена на этап «Определение поставщика (подрядчика, исполнителя) завершено»","localEventDate":null,"timeZoneAbbreviation":"Europe/Moscow"},{"entitySid":14656745,"eventDate":1524486560689,"eventDescription":"Закупка №0473100006418000001 возвращена на этап «Работа комиссии»","localEventDate":null,"timeZoneAbbreviation":"Europe/Moscow"},{"entitySid":14656745,"eventDate":1524486378122,"eventDescription":"Закупка №0473100006418000001 вручную переведена на этап «Определение поставщика (подрядчика, исполнителя) завершено»","localEventDate":null,"timeZoneAbbreviation":"Europe/Moscow"},{"entitySid":14656745,"eventDate":1524486298248,"eventDescription":"Размещен «Протокол рассмотрения и оценки заявок на участие в открытом конкурсе от 23.04.2018 №ПРО1» для закупки №0473100006418000001","localEventDate":null,"timeZoneAbbreviation":"Europe/Moscow"},{"entitySid":14656745,"eventDate":1524223645408,"eventDescription":"Размещены исправления к документу: «Протокол вскрытия конвертов с заявками на участие в открытом конкурсе и открытия доступа к поданным в форме электронных документов заявкам на участие в открытом конкурсе от 18.04.2018 №ПВК2» для закупки №0473100006418000001","localEventDate":null,"timeZoneAbbreviation":"Europe/Moscow"},{"entitySid":14656745,"eventDate":1524132379224,"eventDescription":"Размещен «Протокол вскрытия конвертов с заявками на участие в открытом конкурсе и открытия доступа к поданным в форме электронных документов заявкам на участие в открытом конкурсе от 18.04.2018 №ПВК1» для закупки №0473100006418000001","localEventDate":null,"timeZoneAbbreviation":"Europe/Moscow"},{"entitySid":14656745,"eventDate":1524062830672,"eventDescription":"Закупка №0473100006418000001 в части документа Извещение о проведении открытого конкурса от 28.03.2018 №0473100006418000001 вручную переведена на этап «Работа комиссии»","localEventDate":null,"timeZoneAbbreviation":"Europe/Moscow"},{"entitySid":14656745,"eventDate":1522251338775,"eventDescription":"Закупка №0473100006418000001 автоматически переведена на этап «Подача заявок»","localEventDate":null,"timeZoneAbbreviation":"Europe/Moscow"}],"pageSize":10,"timezone":"Europe/Moscow","total":11}}